D:\TFG\OAuthentication\src\main\java\Oauthservlet\domain\LoginInfo.java
D:\TFG\OAuthentication\src\main\java\Oauthservlet\Oauthservlet.java
D:\TFG\OAuthentication\src\main\java\Oauthservlet\domain\Token.java
D:\TFG\OAuthentication\src\main\java\Oauthservlet\utils\OauthUtils.java
D:\TFG\OAuthentication\src\main\java\Oauthservlet\db\sqlite\manager\DatabaseManager.java
D:\TFG\OAuthentication\src\main\java\Oauthservlet\domain\UserData.java
D:\TFG\OAuthentication\src\main\java\Oauthservlet\cors\CorsFilter.java
D:\TFG\OAuthentication\src\main\java\Oauthservlet\domain\User.java
